<svg width="60" height="60" viewBox="0 0 60 60" fill="none" xmlns="http://www.w3.org/2000/svg">
<g id="Idea_Sharing_24" clip-path="url(#clip0_339_193)">
<g id="Group">
<path id="Vector" d="M32.8618 7.54444C32.2268 7.52957 31.6718 7.61839 31.1682 7.68145C31.1306 7.6862 31.0931 7.69219 31.0559 7.69942C27.6758 8.35391 24.9978 11.0295 24.3446 14.4107C24.3431 14.4167 24.3416 14.4227 24.3401 14.4287C23.7722 17.5509 24.9701 20.4489 27.0713 22.3529V23.8196C27.0713 25.26 28.097 26.2742 29.3646 26.7867C29.8771 28.0546 30.8914 29.08 32.3317 29.08H33.1942C34.6677 29.08 35.706 28.015 36.195 26.7014C37.3534 26.1418 38.2816 25.1803 38.2816 23.8196V22.2204C39.9781 20.6704 41.2127 18.5486 41.2127 16.0302C41.2127 13.9677 40.457 12.1426 39.3889 10.7541C39.0172 10.2536 38.4043 9.99254 37.7858 10.0714C37.1674 10.1502 36.6395 10.5566 36.4052 11.1343C36.1709 11.7121 36.2666 12.3713 36.6554 12.8587C37.3124 13.7127 37.7628 14.8151 37.7628 16.0302C37.7628 17.7618 36.8445 19.328 35.5683 20.2214C35.107 20.5439 34.832 21.0713 34.8316 21.6342V23.8196H30.5213V21.6342C30.5208 21.0753 30.2496 20.5513 29.7936 20.2281C28.2495 19.1338 27.3406 17.2504 27.7362 15.0554C28.1176 13.1043 29.7388 11.4866 31.6893 11.0978C32.3195 11.0207 32.768 10.9743 33.0347 11.0124C33.6535 11.1189 34.2812 10.8808 34.6737 10.3908C35.0663 9.90075 35.1616 9.23617 34.9226 8.65558C34.6836 8.07499 34.1481 7.67007 33.5244 7.59834C33.2937 7.56539 33.0734 7.54939 32.8618 7.54444ZM22.3523 8.37998C21.3996 8.37998 20.6273 9.15229 20.6273 10.105C20.6273 11.0577 21.3996 11.83 22.3523 11.83C23.305 11.83 24.0773 11.0577 24.0773 10.105C24.0773 9.15229 23.305 8.37998 22.3523 8.37998ZM43.0523 8.37998C42.0996 8.37998 41.3273 9.15229 41.3273 10.105C41.3273 11.0577 42.0996 11.83 43.0523 11.83C44.005 11.83 44.7773 11.0577 44.7773 10.105C44.7773 9.15229 44.005 8.37998 43.0523 8.37998ZM20.0523 14.13C19.0996 14.13 18.3273 14.9023 18.3273 15.855C18.3273 16.8077 19.0996 17.58 20.0523 17.58C21.005 17.58 21.7773 16.8077 21.7773 15.855C21.7773 14.9023 21.005 14.13 20.0523 14.13ZM45.3523 14.13C44.3996 14.13 43.6273 14.9023 43.6273 15.855C43.6273 16.8077 44.3996 17.58 45.3523 17.58C46.305 17.58 47.0773 16.8077 47.0773 15.855C47.0773 14.9023 46.305 14.13 45.3523 14.13ZM22.3523 19.88C21.3996 19.88 20.6273 20.6523 20.6273 21.605C20.6273 22.5577 21.3996 23.33 22.3523 23.33C23.305 23.33 24.0773 22.5577 24.0773 21.605C24.0773 20.6523 23.305 19.88 22.3523 19.88ZM43.0523 19.88C42.0996 19.88 41.3273 20.6523 41.3273 21.605C41.3273 22.5577 42.0996 23.33 43.0523 23.33C44.005 23.33 44.7773 22.5577 44.7773 21.605C44.7773 20.6523 44.005 19.88 43.0523 19.88ZM50.0826 27.9524C48.7943 27.9636 47.5709 28.4743 46.4843 29.2821V29.2799C45.9203 29.6986 44.5312 30.7362 42.8973 31.955C42.1332 32.5244 41.9753 33.6054 42.5447 34.3695C43.1141 35.1337 44.1951 35.2916 44.9592 34.7222C46.5937 33.503 47.9903 32.4609 48.5418 32.0516V32.0493C49.1906 31.5669 49.7336 31.4057 50.114 31.4024C50.4944 31.3991 50.7783 31.4914 51.1719 31.8854C51.8509 32.5637 51.8468 33.6053 51.1854 34.2932C45.027 39.4716 41.153 42.9224 38.5938 44.9441C36.0027 46.9911 34.916 47.48 33.8523 47.48C31.6683 47.48 29.3579 47.1846 26.9523 46.8848C26.3337 46.7941 25.7145 47.0452 25.3337 47.5411C24.953 48.0369 24.8703 48.7 25.1177 49.2742C25.365 49.8484 25.9036 50.2438 26.5255 50.3078C28.9178 50.606 31.3627 50.93 33.8523 50.93C36.0396 50.93 37.9749 49.8311 40.7321 47.6529C43.4545 45.5023 47.279 42.0864 53.4001 36.9391C53.475 36.8864 53.5456 36.8278 53.6112 36.7639C53.6191 36.7559 53.6213 36.7449 53.6292 36.7369L53.6336 36.7414L53.6943 36.6785C53.8626 36.5031 53.992 36.2942 54.0739 36.0653C55.5074 34.05 55.4135 31.2469 53.6112 29.4461C52.6581 28.4922 51.3708 27.9413 50.0826 27.9524ZM18.1274 30.23C14.6987 30.23 11.8832 31.9559 9.79888 33.9136C7.71461 35.8712 6.27492 38.1075 5.45718 39.54C4.66968 40.9202 4.77875 42.6473 5.71773 43.9199L10.8096 50.8267C12.2912 52.836 15.3671 53.0662 17.0403 51.1299C17.4835 50.6172 18.0414 50.1828 18.8192 49.9507C19.7322 49.6778 20.2511 48.7164 19.9782 47.8034C19.7053 46.8904 18.7439 46.3715 17.8309 46.6444C16.3271 47.0932 15.2039 47.9799 14.4303 48.8748C14.2175 49.1211 13.8154 49.0896 13.5858 48.7782L8.4939 41.8715C8.35189 41.679 8.33938 41.4515 8.45347 41.2516C9.16524 40.0046 10.4635 38.02 12.1595 36.427C13.8556 34.834 15.8624 33.68 18.1274 33.68C19.877 33.68 20.6328 33.9167 22.0468 34.2168C23.4609 34.5169 25.3672 34.83 28.7986 34.83H33.8501C34.8559 34.83 35.6264 35.6217 35.5728 36.6516C35.5253 37.5336 34.6636 38.28 33.6569 38.28H25.8023C25.1802 38.2712 24.6016 38.598 24.2879 39.1354C23.9743 39.6727 23.9743 40.3373 24.2879 40.8746C24.6016 41.4119 25.1802 41.7388 25.8023 41.73H33.6569C36.3869 41.73 38.8691 39.6789 39.0183 36.8313V36.829C39.1717 33.88 36.7795 31.38 33.8501 31.38H28.7986C25.5657 31.38 24.0584 31.118 22.7633 30.8432C21.4683 30.5683 20.2211 30.23 18.1274 30.23Z" fill="#4044EE"/>
</g>
</g>
<defs>
<clipPath id="clip0_339_193">
<rect width="60" height="60" fill="white"/>
</clipPath>
</defs>
</svg>
