<svg width="60" height="60" viewBox="0 0 60 60" fill="none" xmlns="http://www.w3.org/2000/svg">
<g id="Time_24" clip-path="url(#clip0_339_212)">
<g id="Group">
<path id="Vector" d="M27.9248 5.10001C26.7794 5.10001 25.8498 6.02961 25.8498 7.17501V9.64717C15.2446 11.608 7.1748 20.9127 7.1748 32.075C7.1748 44.6563 17.4185 54.9 29.9998 54.9C42.5811 54.9 52.8248 44.6563 52.8248 32.075C52.8248 20.9127 44.755 11.608 34.1498 9.64717V7.17501C34.1498 6.02961 33.2202 5.10001 32.0748 5.10001H27.9248ZM46.5795 9.22974C45.7352 9.22996 44.9751 9.74176 44.6574 10.5241C44.3397 11.3064 44.5276 12.2032 45.1327 12.7921L47.2077 14.8671C47.7282 15.4092 48.501 15.6275 49.2282 15.438C49.9553 15.2484 50.5232 14.6805 50.7128 13.9534C50.9023 13.2262 50.684 12.4534 50.1419 11.9329L48.0669 9.85792C47.6762 9.45634 47.1398 9.22977 46.5795 9.22974ZM29.9998 13.4C40.3383 13.4 48.6748 21.7365 48.6748 32.075C48.6748 42.4135 40.3383 50.75 29.9998 50.75C19.6613 50.75 11.3248 42.4135 11.3248 32.075C11.3248 21.7365 19.6613 13.4 29.9998 13.4ZM29.9674 17.5216C28.823 17.5395 27.9091 18.4806 27.9248 19.625V28.4883C26.6431 29.2284 25.8524 30.595 25.8498 32.075C25.851 33.5565 26.6418 34.925 27.9248 35.6657V38.3C27.9142 39.0483 28.3074 39.7444 28.9537 40.1216C29.6001 40.4989 30.3995 40.4989 31.0459 40.1216C31.6922 39.7444 32.0854 39.0483 32.0748 38.3V35.6617C33.3566 34.9217 34.1472 33.555 34.1498 32.075C34.1486 30.5935 33.3578 29.225 32.0748 28.4843V19.625C32.0825 19.0641 31.8628 18.524 31.4658 18.1278C31.0688 17.7315 30.5282 17.5129 29.9674 17.5216Z" fill="#4044EE"/>
</g>
</g>
<defs>
<clipPath id="clip0_339_212">
<rect width="60" height="60" fill="white"/>
</clipPath>
</defs>
</svg>
